version="0.3"
tags={
	"Balance"
	"National Ideas"
	"Fixes"
	"Gameplay"
	"Historical"
}
name="Historical Ideas Expanded"
picture="historical_ideas_expanded.png"
supported_version="1.35.0"
path="C:/Users/AlexI/OneDrive/Documenti/Paradox Interactive/Europa Universalis IV/mod/Historical-National-Ideas"
remote_file_id="2804377099"