country_has_both_hie_vanilla_ideas = {
	OR = {
		tag = BYZ
		tag = HUN
		tag = TUR
		tag = SWE
		tag = FIN
		tag = DAN
		tag = CNN
		tag = DMS
		tag = KID
		tag = FLY
		tag = IRE
		tag = MCM
		tag = MNS
		tag = MTH
		tag = ORD
		tag = SLN
		tag = TYR
		tag = TRY
		tag = ENG
		tag = SCO
		tag = GBR
		tag = FRA
		tag = BRI
		tag = BUR
		tag = HAB
		AND = {
			tag = STY
			dynasty = "von Habsburg"
		}
		tag = BOH
		tag = BRA
		tag = PRU
		tag = SAX
		tag = SWI
		tag = ADU
		tag = ARA
		tag = ASU
		tag = CAS
		tag = CAT
		tag = GAL
		tag = GRA
		tag = LON
		tag = MJO
		tag = NAV
		tag = POR
		tag = VAL
		tag = SPA
		tag = MOR
		tag = FER
		tag = GEN
		tag = ITA
		tag = MAN
		tag = MLO
		tag = NAP
		tag = PGA
		tag = PIS
		tag = SAR
		tag = SAV
		tag = SIC
		tag = SPI
		tag = TTS
		tag = TUS
		tag = LAN 
		tag = VEN
		tag = BRB
		tag = EFR
		tag = FLA
		tag = FRI
		tag = GEL
		tag = HOL
		tag = NED
		tag = NED
		tag = NED
		tag = NOV
		tag = RUS
		tag = RUS
		tag = UKR
		tag = POL
		tag = PLC
		tag = PLC
		tag = PER
		tag = DLH
		tag = BNG
		tag = MUG
		tag = JNP
		tag = MER
		tag = VIJ
		tag = ORI
		tag = GUJ
		tag = MAR
		tag = BDA
		AND = {
			TAG = GWA
			primary_culture = marathi
		}
		tag = JAP
		tag = KOR
		tag = MAJ
		tag = AYU
		tag = SIA
		tag = USA
		tag = AZT
		tag = INC
		tag = CSU
		tag = NSS
		tag = PRY
		tag = TOR
		tag = LIB
		# Papal State and Paderborn
		tag = PAP
		tag = PAD
		# Mediterranean + Far East from Br0ken
		tag = ACH
		tag = ATH
		tag = GRE
		tag = MOE
		tag = CEP
		tag = CRT
		tag = NAX
		tag = EPI
		tag = TRE
		tag = FEO
		tag = KNI
		tag = CYP
		tag = KOJ
		# 19-08-2022 from Ginger Sod
		tag = HSA
		tag = MAM
		tag = MNG
		tag = MSA
		tag = TEU
		# 25-12-2022
		tag = ALB
		tag = BUL
		tag = LIT
		tag = LUC
		tag = MFA
		tag = MOS
		tag = RAG
		tag = SER
		tag = SIE
		tag = SZO
		# tag = TIM
		tag = URB
		tag = VRN
		tag = WAL
		# 18-04-2023
		tag = AVR
		tag = ARM
		tag = CIR
		tag = GEO
		tag = IME
		tag = MLK
		tag = SME
		tag = SRV
	}
}